// Jest Snapshot v1, https://goo.gl/fbAQLP

exports[`Header component matches snapshot 1`] = `
<header>
  <ul>
    <li>
      <NavLink
        activeClassName="activeMenuElement"
        exact={true}
        to="/"
      >
        Home
      </NavLink>
    </li>
    <li>
      <NavLink
        activeClassName="activeMenuElement"
        to="/news"
      >
        News
      </NavLink>
    </li>
    <li>
      <NavLink
        activeClassName="activeMenuElement"
        to="/profile"
      >
        Profile
      </NavLink>
    </li>
  </ul>
  <span>
    <button
      onClick={[Function]}
      type="button"
    >
      login
    </button>
  </span>
</header>
`;
